…
pass_sequences %>% 
  select(pass_sequence_label, type_name, goalkeeper_outcome_name, goal) %>% 
  mutate_at(vars(goal), ~ ifelse(is.na(.x), "saved", .x)) %>% 
  distinct(pass_sequence_label, goal)
```

    ## # A tibble: 31 x 2
    ## # Groups:   pass_sequence_label [31]
    ##    pass_sequence_label goal 
    ##    <fct>               <chr>
    ##  1 1                   saved
    ##  2 2                   saved
    ##  3 3                   saved
    ##  4 4                   saved
    ##  5 5                   saved
    ##  6 6                   saved
    ##  7 7                   saved
    ##  8 8                   saved
    ##  9 9                   saved
    ## 10 10                  saved
    ## # ... with 21 more rows

``` r
pass_sequences %>% 
  group_by(pass_sequence_label) %>% 
  slice(1:6) %>% 
  select(pass_sequence_label, everything())
```

    ## # A tibble: 180 x 16
    ## # Groups:   pass_sequence_label [31]
    ##    pass_sequence_l… event_id type_id type_name timestamp duration team_name
    ##    <fct>            <chr>      <int> <chr>     <chr>        <dbl> <chr>    
    ##  1 1                26973b6…       9 Clearance 00:00:45…    0     Manchest…
    ##  2 1                eb189dd…       2 Ball Rec… 00:00:47…    0     Manchest…
    ##  3 1                2dc12a7…      39 Dribbled… 00:00:47…    0     Chelsea …
    ##  4 1                5fcba4e…      14 Dribble   00:00:47…    0     Manchest…
    ##  5 1                9a305bf…      17 Pressure  00:00:48…    0.409 Chelsea …
    ##  6 1                8828286…      30 Pass      00:00:49…    0.395 Manchest…
    ##  7 2                ae2c5e0…      42 Ball Rec… 00:04:24…   NA     Manchest…
    ##  8 2                f1e6140…      10 Intercep… 00:04:24…    0     Chelsea …
    ##  9 2                f1d3bc5…      17 Pressure  00:04:27…    0.229 Manchest…
    ## 10 2                355302d…      30 Pass      00:04:27…    1.16  Chelsea …
    ## # ... with 170 more rows, and 9 more variables:
    ## #   possession_team_name <chr>, play_pattern_name <chr>,
    ## #   pass_length <dbl>, pass_height <chr>, pass_angle <dbl>,
    ## #   goalkeeper_type_name <chr>, goalkeeper_outcome_name <chr>,
    ## #   lead_possessor <lgl>, goal <chr>
…
